{
  "kind": "collectionType",
  "collectionName": "skills",
  "info": {
    "name": "Skill",
    "description": ""
  },
  "options": {
    "increments": true,
    "timestamps": true,
    "draftAndPublish": false
  },
  "pluginOptions": {},
  "attributes": {
    "title": {
      "type": "string",
      "required": true
    },
    "skill_group": {
      "via": "skills",
      "model": "skill-group"
    },
    "skill_levels": {
      "collection": "skill-level"
    }
  }
}
