{
  "routes": [
    {
      "method": "GET",
      "path": "/rating-2-records",
      "handler": "rating2-record.find",
      "config": {
        "policies": []
      }
    },
    {
      "method": "GET",
      "path": "/rating-2-records/count",
      "handler": "rating2-record.count",
      "config": {
        "policies": []
      }
    },
    {
      "method": "GET",
      "path": "/rating-2-records/:id",
      "handler": "rating2-record.findOne",
      "config": {
        "policies": []
      }
    },
    {
      "method": "POST",
      "path": "/rating-2-records",
      "handler": "rating2-record.create",
      "config": {
        "policies": []
      }
    },
    {
      "method": "PUT",
      "path": "/rating-2-records/:id",
      "handler": "rating2-record.update",
      "config": {
        "policies": []
      }
    },
    {
      "method": "DELETE",
      "path": "/rating-2-records/:id",
      "handler": "rating2-record.delete",
      "config": {
        "policies": []
      }
    }
  ]
}
