{
  "kind": "collectionType",
  "collectionName": "story_header_colors",
  "info": {
    "name": "StoryHeaderColor",
    "description": ""
  },
  "options": {
    "increments": true,
    "timestamps": true,
    "draftAndPublish": false
  },
  "pluginOptions": {},
  "attributes": {
    "value": {
      "type": "string",
      "required": true,
      "unique": true
    },
    "title": {
      "type": "string",
      "required": true,
      "unique": false
    },
    "description": {
      "type": "string"
    }
  }
}
