{
  "kind": "collectionType",
  "collectionName": "flags",
  "info": {
    "name": "Flags"
  },
  "options": {
    "increments": true,
    "timestamps": true,
    "draftAndPublish": false
  },
  "pluginOptions": {},
  "attributes": {
    "title": {
      "type": "string"
    }
  }
}
