{
  "routes": [
    {
      "method": "GET",
      "path": "/story-categories-groups",
      "handler": "story-categories-group.find",
      "config": {
        "policies": []
      }
    },
    {
      "method": "GET",
      "path": "/story-categories-groups/count",
      "handler": "story-categories-group.count",
      "config": {
        "policies": []
      }
    },
    {
      "method": "GET",
      "path": "/story-categories-groups/:id",
      "handler": "story-categories-group.findOne",
      "config": {
        "policies": []
      }
    },
    {
      "method": "POST",
      "path": "/story-categories-groups",
      "handler": "story-categories-group.create",
      "config": {
        "policies": []
      }
    },
    {
      "method": "PUT",
      "path": "/story-categories-groups/:id",
      "handler": "story-categories-group.update",
      "config": {
        "policies": []
      }
    },
    {
      "method": "DELETE",
      "path": "/story-categories-groups/:id",
      "handler": "story-categories-group.delete",
      "config": {
        "policies": []
      }
    }
  ]
}
