{
  "paths": {
    "/stories": {
      "get": {
        "deprecated": false,
        "description": "",
        "responses": {
          "200": {
            "description": "response",
            "content": {
              "application/json": {
                "schema": {
                  "type": "array",
                  "items": {
                    "$ref": "#/components/schemas/Story"
                  }
                }
              }
            }
          },
          "403": {
            "description": "Forbidden",
            "content": {
              "application/json": {
                "schema": {
                  "$ref": "#/components/schemas/Error"
                }
              }
            }
          },
          "404": {
            "description": "Not found",
            "content": {
              "application/json": {
                "schema": {
                  "$ref": "#/components/schemas/Error"
                }
              }
            }
          },
          "default": {
            "description": "unexpected error",
            "content": {
              "application/json": {
                "schema": {
                  "$ref": "#/components/schemas/Error"
                }
              }
            }
          }
        },
        "summary": "",
        "tags": [
          "Story"
        ],
        "parameters": [
          {
            "name": "_limit",
            "in": "query",
            "required": false,
            "description": "Maximum number of results possible",
            "schema": {
              "type": "integer"
            },
            "deprecated": false
          },
          {
            "name": "_sort",
            "in": "query",
            "required": false,
            "description": "Sort according to a specific field.",
            "schema": {
              "type": "string"
            },
            "deprecated": false
          },
          {
            "name": "_start",
            "in": "query",
            "required": false,
            "description": "Skip a specific number of entries (especially useful for pagination)",
            "schema": {
              "type": "integer"
            },
            "deprecated": false
          },
          {
            "name": "=",
            "in": "query",
            "required": false,
            "description": "Get entries that matches exactly your input",
            "schema": {
              "type": "string"
            },
            "deprecated": false
          },
          {
            "name": "_ne",
            "in": "query",
            "required": false,
            "description": "Get records that are not equals to something",
            "schema": {
              "type": "string"
            },
            "deprecated": false
          },
          {
            "name": "_lt",
            "in": "query",
            "required": false,
            "description": "Get record that are lower than a value",
            "schema": {
              "type": "string"
            },
            "deprecated": false
          },
          {
            "name": "_lte",
            "in": "query",
            "required": false,
            "description": "Get records that are lower than or equal to a value",
            "schema": {
              "type": "string"
            },
            "deprecated": false
          },
          {
            "name": "_gt",
            "in": "query",
            "required": false,
            "description": "Get records that are greater than a value",
            "schema": {
              "type": "string"
            },
            "deprecated": false
          },
          {
            "name": "_gte",
            "in": "query",
            "required": false,
            "description": "Get records that are greater than  or equal a value",
            "schema": {
              "type": "string"
            },
            "deprecated": false
          },
          {
            "name": "_contains",
            "in": "query",
            "required": false,
            "description": "Get records that contains a value",
            "schema": {
              "type": "string"
            },
            "deprecated": false
          },
          {
            "name": "_containss",
            "in": "query",
            "required": false,
            "description": "Get records that contains (case sensitive) a value",
            "schema": {
              "type": "string"
            },
            "deprecated": false
          },
          {
            "name": "_in",
            "in": "query",
            "required": false,
            "description": "Get records that matches any value in the array of values",
            "schema": {
              "type": "array",
              "items": {
                "type": "string"
              }
            },
            "deprecated": false
          },
          {
            "name": "_nin",
            "in": "query",
            "required": false,
            "description": "Get records that doesn't match any value in the array of values",
            "schema": {
              "type": "array",
              "items": {
                "type": "string"
              }
            },
            "deprecated": false
          }
        ]
      },
      "post": {
        "deprecated": false,
        "description": "Create a new record",
        "responses": {
          "200": {
            "description": "response",
            "content": {
              "application/json": {
                "schema": {
                  "$ref": "#/components/schemas/Story"
                }
              }
            }
          },
          "403": {
            "description": "Forbidden",
            "content": {
              "application/json": {
                "schema": {
                  "$ref": "#/components/schemas/Error"
                }
              }
            }
          },
          "404": {
            "description": "Not found",
            "content": {
              "application/json": {
                "schema": {
                  "$ref": "#/components/schemas/Error"
                }
              }
            }
          },
          "default": {
            "description": "unexpected error",
            "content": {
              "application/json": {
                "schema": {
                  "$ref": "#/components/schemas/Error"
                }
              }
            }
          }
        },
        "summary": "",
        "tags": [
          "Story"
        ],
        "requestBody": {
          "description": "",
          "required": true,
          "content": {
            "application/json": {
              "schema": {
                "$ref": "#/components/schemas/NewStory"
              }
            }
          }
        }
      }
    },
    "/stories/authors": {
      "get": {
        "deprecated": false,
        "description": "",
        "responses": {
          "200": {
            "description": "response",
            "content": {
              "application/json": {
                "schema": {
                  "properties": {
                    "foo": {
                      "type": "string"
                    }
                  }
                }
              }
            }
          },
          "403": {
            "description": "Forbidden",
            "content": {
              "application/json": {
                "schema": {
                  "$ref": "#/components/schemas/Error"
                }
              }
            }
          },
          "404": {
            "description": "Not found",
            "content": {
              "application/json": {
                "schema": {
                  "$ref": "#/components/schemas/Error"
                }
              }
            }
          },
          "default": {
            "description": "unexpected error",
            "content": {
              "application/json": {
                "schema": {
                  "$ref": "#/components/schemas/Error"
                }
              }
            }
          }
        },
        "summary": "",
        "tags": [
          "Story"
        ],
        "parameters": []
      }
    },
    "/stories/editors": {
      "get": {
        "deprecated": false,
        "description": "",
        "responses": {
          "200": {
            "description": "response",
            "content": {
              "application/json": {
                "schema": {
                  "properties": {
                    "foo": {
                      "type": "string"
                    }
                  }
                }
              }
            }
          },
          "403": {
            "description": "Forbidden",
            "content": {
              "application/json": {
                "schema": {
                  "$ref": "#/components/schemas/Error"
                }
              }
            }
          },
          "404": {
            "description": "Not found",
            "content": {
              "application/json": {
                "schema": {
                  "$ref": "#/components/schemas/Error"
                }
              }
            }
          },
          "default": {
            "description": "unexpected error",
            "content": {
              "application/json": {
                "schema": {
                  "$ref": "#/components/schemas/Error"
                }
              }
            }
          }
        },
        "summary": "",
        "tags": [
          "Story"
        ],
        "parameters": []
      }
    },
    "/stories/count": {
      "get": {
        "deprecated": false,
        "description": "",
        "responses": {
          "200": {
            "description": "response",
            "content": {
              "application/json": {
                "schema": {
                  "properties": {
                    "count": {
                      "type": "integer"
                    }
                  }
                }
              }
            }
          },
          "403": {
            "description": "Forbidden",
            "content": {
              "application/json": {
                "schema": {
                  "$ref": "#/components/schemas/Error"
                }
              }
            }
          },
          "404": {
            "description": "Not found",
            "content": {
              "application/json": {
                "schema": {
                  "$ref": "#/components/schemas/Error"
                }
              }
            }
          },
          "default": {
            "description": "unexpected error",
            "content": {
              "application/json": {
                "schema": {
                  "$ref": "#/components/schemas/Error"
                }
              }
            }
          }
        },
        "summary": "",
        "tags": [
          "Story"
        ],
        "parameters": []
      }
    },
    "/stories/{id}": {
      "get": {
        "deprecated": false,
        "description": "",
        "responses": {
          "200": {
            "description": "response",
            "content": {
              "application/json": {
                "schema": {
                  "$ref": "#/components/schemas/Story"
                }
              }
            }
          },
          "403": {
            "description": "Forbidden",
            "content": {
              "application/json": {
                "schema": {
                  "$ref": "#/components/schemas/Error"
                }
              }
            }
          },
          "404": {
            "description": "Not found",
            "content": {
              "application/json": {
                "schema": {
                  "$ref": "#/components/schemas/Error"
                }
              }
            }
          },
          "default": {
            "description": "unexpected error",
            "content": {
              "application/json": {
                "schema": {
                  "$ref": "#/components/schemas/Error"
                }
              }
            }
          }
        },
        "summary": "",
        "tags": [
          "Story"
        ],
        "parameters": [
          {
            "name": "id",
            "in": "path",
            "description": "",
            "deprecated": false,
            "required": true,
            "schema": {
              "type": "string"
            }
          }
        ]
      },
      "put": {
        "deprecated": false,
        "description": "Update a record",
        "responses": {
          "200": {
            "description": "response",
            "content": {
              "application/json": {
                "schema": {
                  "$ref": "#/components/schemas/Story"
                }
              }
            }
          },
          "403": {
            "description": "Forbidden",
            "content": {
              "application/json": {
                "schema": {
                  "$ref": "#/components/schemas/Error"
                }
              }
            }
          },
          "404": {
            "description": "Not found",
            "content": {
              "application/json": {
                "schema": {
                  "$ref": "#/components/schemas/Error"
                }
              }
            }
          },
          "default": {
            "description": "unexpected error",
            "content": {
              "application/json": {
                "schema": {
                  "$ref": "#/components/schemas/Error"
                }
              }
            }
          }
        },
        "summary": "",
        "tags": [
          "Story"
        ],
        "requestBody": {
          "description": "",
          "required": true,
          "content": {
            "application/json": {
              "schema": {
                "$ref": "#/components/schemas/NewStory"
              }
            }
          }
        },
        "parameters": [
          {
            "name": "id",
            "in": "path",
            "description": "",
            "deprecated": false,
            "required": true,
            "schema": {
              "type": "string"
            }
          }
        ]
      },
      "delete": {
        "deprecated": false,
        "description": "Delete a record",
        "responses": {
          "200": {
            "description": "deletes a single record based on the ID supplied",
            "content": {
              "application/json": {
                "schema": {
                  "type": "integer",
                  "format": "int64"
                }
              }
            }
          },
          "403": {
            "description": "Forbidden",
            "content": {
              "application/json": {
                "schema": {
                  "$ref": "#/components/schemas/Error"
                }
              }
            }
          },
          "404": {
            "description": "Not found",
            "content": {
              "application/json": {
                "schema": {
                  "$ref": "#/components/schemas/Error"
                }
              }
            }
          },
          "default": {
            "description": "unexpected error",
            "content": {
              "application/json": {
                "schema": {
                  "$ref": "#/components/schemas/Error"
                }
              }
            }
          }
        },
        "summary": "",
        "tags": [
          "Story"
        ],
        "parameters": [
          {
            "name": "id",
            "in": "path",
            "description": "",
            "deprecated": false,
            "required": true,
            "schema": {
              "type": "string"
            }
          }
        ]
      }
    },
    "/story/payment-excel": {
      "get": {
        "deprecated": false,
        "description": "",
        "responses": {
          "200": {
            "description": "Retrieve story document(s)",
            "content": {
              "application/json": {
                "schema": {
                  "properties": {
                    "foo": {
                      "type": "string"
                    }
                  }
                }
              }
            }
          },
          "403": {
            "description": "Forbidden",
            "content": {
              "application/json": {
                "schema": {
                  "$ref": "#/components/schemas/Error"
                }
              }
            }
          },
          "404": {
            "description": "Not found",
            "content": {
              "application/json": {
                "schema": {
                  "$ref": "#/components/schemas/Error"
                }
              }
            }
          },
          "default": {
            "description": "unexpected error",
            "content": {
              "application/json": {
                "schema": {
                  "$ref": "#/components/schemas/Error"
                }
              }
            }
          }
        },
        "summary": "",
        "tags": [
          "Story"
        ],
        "parameters": []
      }
    },
    "/story/available-templates": {
      "get": {
        "deprecated": false,
        "description": "",
        "responses": {
          "200": {
            "description": "Retrieve story document(s)",
            "content": {
              "application/json": {
                "schema": {
                  "properties": {
                    "foo": {
                      "type": "string"
                    }
                  }
                }
              }
            }
          },
          "403": {
            "description": "Forbidden",
            "content": {
              "application/json": {
                "schema": {
                  "$ref": "#/components/schemas/Error"
                }
              }
            }
          },
          "404": {
            "description": "Not found",
            "content": {
              "application/json": {
                "schema": {
                  "$ref": "#/components/schemas/Error"
                }
              }
            }
          },
          "default": {
            "description": "unexpected error",
            "content": {
              "application/json": {
                "schema": {
                  "$ref": "#/components/schemas/Error"
                }
              }
            }
          }
        },
        "summary": "",
        "tags": [
          "Story"
        ],
        "parameters": []
      }
    },
    "/stories/appoint": {
      "post": {
        "deprecated": false,
        "description": "Create a new record",
        "responses": {
          "200": {
            "description": "response",
            "content": {
              "application/json": {
                "schema": {
                  "properties": {
                    "foo": {
                      "type": "string"
                    }
                  }
                }
              }
            }
          },
          "403": {
            "description": "Forbidden",
            "content": {
              "application/json": {
                "schema": {
                  "$ref": "#/components/schemas/Error"
                }
              }
            }
          },
          "404": {
            "description": "Not found",
            "content": {
              "application/json": {
                "schema": {
                  "$ref": "#/components/schemas/Error"
                }
              }
            }
          },
          "default": {
            "description": "unexpected error",
            "content": {
              "application/json": {
                "schema": {
                  "$ref": "#/components/schemas/Error"
                }
              }
            }
          }
        },
        "summary": "",
        "tags": [
          "Story"
        ],
        "requestBody": {
          "description": "",
          "required": true,
          "content": {
            "application/json": {
              "schema": {
                "properties": {
                  "foo": {
                    "type": "string"
                  }
                }
              }
            }
          }
        }
      }
    },
    "/stories/bulk-status-change": {
      "post": {
        "deprecated": false,
        "description": "Create a new record",
        "responses": {
          "200": {
            "description": "response",
            "content": {
              "application/json": {
                "schema": {
                  "properties": {
                    "foo": {
                      "type": "string"
                    }
                  }
                }
              }
            }
          },
          "403": {
            "description": "Forbidden",
            "content": {
              "application/json": {
                "schema": {
                  "$ref": "#/components/schemas/Error"
                }
              }
            }
          },
          "404": {
            "description": "Not found",
            "content": {
              "application/json": {
                "schema": {
                  "$ref": "#/components/schemas/Error"
                }
              }
            }
          },
          "default": {
            "description": "unexpected error",
            "content": {
              "application/json": {
                "schema": {
                  "$ref": "#/components/schemas/Error"
                }
              }
            }
          }
        },
        "summary": "",
        "tags": [
          "Story"
        ],
        "requestBody": {
          "description": "",
          "required": true,
          "content": {
            "application/json": {
              "schema": {
                "properties": {
                  "foo": {
                    "type": "string"
                  }
                }
              }
            }
          }
        }
      }
    },
    "/stories/bulk-templates-available-change": {
      "post": {
        "deprecated": false,
        "description": "Create a new record",
        "responses": {
          "200": {
            "description": "response",
            "content": {
              "application/json": {
                "schema": {
                  "properties": {
                    "foo": {
                      "type": "string"
                    }
                  }
                }
              }
            }
          },
          "403": {
            "description": "Forbidden",
            "content": {
              "application/json": {
                "schema": {
                  "$ref": "#/components/schemas/Error"
                }
              }
            }
          },
          "404": {
            "description": "Not found",
            "content": {
              "application/json": {
                "schema": {
                  "$ref": "#/components/schemas/Error"
                }
              }
            }
          },
          "default": {
            "description": "unexpected error",
            "content": {
              "application/json": {
                "schema": {
                  "$ref": "#/components/schemas/Error"
                }
              }
            }
          }
        },
        "summary": "",
        "tags": [
          "Story"
        ],
        "requestBody": {
          "description": "",
          "required": true,
          "content": {
            "application/json": {
              "schema": {
                "properties": {
                  "foo": {
                    "type": "string"
                  }
                }
              }
            }
          }
        }
      }
    }
  },
  "components": {
    "schemas": {
      "Story": {
        "required": [
          "id",
          "data",
          "status",
          "formData",
          "fixed",
          "calculatedRatingOne",
          "calculatedRatingTwo"
        ],
        "properties": {
          "id": {
            "type": "string"
          },
          "data": {
            "type": "object"
          },
          "author": {
            "required": [
              "id",
              "username",
              "email",
              "rating",
              "ratingTwo",
              "canTakeAnyStory",
              "ratingCount",
              "ratingTwoCount"
            ],
            "properties": {
              "id": {
                "type": "string"
              },
              "username": {
                "type": "string"
              },
              "email": {
                "type": "string"
              },
              "provider": {
                "type": "string"
              },
              "password": {
                "type": "string"
              },
              "resetPasswordToken": {
                "type": "string"
              },
              "confirmationToken": {
                "type": "string"
              },
              "confirmed": {
                "type": "boolean"
              },
              "blocked": {
                "type": "boolean"
              },
              "role": {
                "type": "string"
              },
              "canDoTwoOptions": {
                "type": "boolean"
              },
              "creditCardNumber": {
                "type": "string"
              },
              "creditCardOwnerName": {
                "type": "string"
              },
              "paypall": {
                "type": "string"
              },
              "comment": {
                "type": "string"
              },
              "phone": {
                "type": "string"
              },
              "contact": {
                "type": "string"
              },
              "rating": {
                "type": "number"
              },
              "ratingTwo": {
                "type": "number"
              },
              "canTakeAnyStory": {
                "type": "boolean"
              },
              "ratingCount": {
                "type": "integer"
              },
              "ratingTwoCount": {
                "type": "integer"
              },
              "stories": {
                "type": "array",
                "items": {
                  "type": "string"
                }
              },
              "created_by": {
                "type": "string"
              },
              "updated_by": {
                "type": "string"
              }
            }
          },
          "comment": {
            "type": "string"
          },
          "status": {
            "type": "string",
            "enum": [
              "DRAFT",
              "REJECTED",
              "WAIT_FOR_APPROVE",
              "APPROVED",
              "PAYMENT_IN_PROGRESS",
              "PAID",
              "WAIT_PROOFREADING_OF_PAID",
              "IN_PROOFREADING_OF_PAID",
              "PAYMENT_ERROR",
              "TO_BUILD",
              "IN_BUILD",
              "PROOFREADING_OF_PAID_DONE",
              "TEMPLATE",
              "TRASH"
            ]
          },
          "formData": {
            "type": "object"
          },
          "fixed": {
            "type": "boolean",
            "default": false
          },
          "story_comments": {
            "type": "array",
            "items": {
              "required": [
                "id",
                "text"
              ],
              "properties": {
                "id": {
                  "type": "string"
                },
                "text": {
                  "type": "string"
                },
                "story": {
                  "type": "string"
                },
                "author": {
                  "type": "string"
                },
                "answers": {
                  "type": "array",
                  "items": {
                    "type": "string"
                  }
                },
                "parentComment": {
                  "type": "string"
                },
                "created_by": {
                  "type": "string"
                },
                "updated_by": {
                  "type": "string"
                }
              }
            }
          },
          "proofreadingFinishDate": {
            "type": "string",
            "format": "date-time"
          },
          "authorFinishDate": {
            "type": "string",
            "format": "date-time"
          },
          "editor": {
            "required": [
              "id",
              "username",
              "email",
              "rating",
              "ratingTwo",
              "canTakeAnyStory",
              "ratingCount",
              "ratingTwoCount"
            ],
            "properties": {
              "id": {
                "type": "string"
              },
              "username": {
                "type": "string"
              },
              "email": {
                "type": "string"
              },
              "provider": {
                "type": "string"
              },
              "password": {
                "type": "string"
              },
              "resetPasswordToken": {
                "type": "string"
              },
              "confirmationToken": {
                "type": "string"
              },
              "confirmed": {
                "type": "boolean"
              },
              "blocked": {
                "type": "boolean"
              },
              "role": {
                "type": "string"
              },
              "canDoTwoOptions": {
                "type": "boolean"
              },
              "creditCardNumber": {
                "type": "string"
              },
              "creditCardOwnerName": {
                "type": "string"
              },
              "paypall": {
                "type": "string"
              },
              "comment": {
                "type": "string"
              },
              "phone": {
                "type": "string"
              },
              "contact": {
                "type": "string"
              },
              "rating": {
                "type": "number"
              },
              "ratingTwo": {
                "type": "number"
              },
              "canTakeAnyStory": {
                "type": "boolean"
              },
              "ratingCount": {
                "type": "integer"
              },
              "ratingTwoCount": {
                "type": "integer"
              },
              "stories": {
                "type": "array",
                "items": {
                  "type": "string"
                }
              },
              "created_by": {
                "type": "string"
              },
              "updated_by": {
                "type": "string"
              }
            }
          },
          "sourceFileName": {
            "type": "string"
          },
          "sourceFileJson": {
            "type": "object"
          },
          "calculatedRatingOne": {
            "type": "number",
            "default": 0
          },
          "calculatedRatingTwo": {
            "type": "number",
            "default": 0
          },
          "templateName": {
            "type": "string"
          },
          "template": {
            "required": [
              "id",
              "data",
              "status",
              "formData",
              "fixed",
              "calculatedRatingOne",
              "calculatedRatingTwo"
            ],
            "properties": {
              "id": {
                "type": "string"
              },
              "data": {
                "type": "object"
              },
              "author": {
                "type": "string"
              },
              "comment": {
                "type": "string"
              },
              "status": {
                "type": "string",
                "enum": [
                  "DRAFT",
                  "REJECTED",
                  "WAIT_FOR_APPROVE",
                  "APPROVED",
                  "PAYMENT_IN_PROGRESS",
                  "PAID",
                  "WAIT_PROOFREADING_OF_PAID",
                  "IN_PROOFREADING_OF_PAID",
                  "PAYMENT_ERROR",
                  "TO_BUILD",
                  "IN_BUILD",
                  "PROOFREADING_OF_PAID_DONE",
                  "TEMPLATE",
                  "TRASH"
                ]
              },
              "formData": {
                "type": "object"
              },
              "fixed": {
                "type": "boolean"
              },
              "story_comments": {
                "type": "array",
                "items": {
                  "type": "string"
                }
              },
              "proofreadingFinishDate": {
                "type": "string"
              },
              "authorFinishDate": {
                "type": "string"
              },
              "editor": {
                "type": "string"
              },
              "sourceFileName": {
                "type": "string"
              },
              "sourceFileJson": {
                "type": "object"
              },
              "calculatedRatingOne": {
                "type": "number"
              },
              "calculatedRatingTwo": {
                "type": "number"
              },
              "templateName": {
                "type": "string"
              },
              "template": {
                "type": "string"
              },
              "available": {
                "type": "boolean"
              },
              "stringId": {
                "type": "string"
              },
              "created_by": {
                "type": "string"
              },
              "updated_by": {
                "type": "string"
              }
            }
          },
          "available": {
            "type": "boolean",
            "default": false
          },
          "stringId": {
            "type": "string"
          }
        }
      },
      "NewStory": {
        "required": [
          "data",
          "status",
          "formData",
          "fixed",
          "calculatedRatingOne",
          "calculatedRatingTwo"
        ],
        "properties": {
          "data": {
            "type": "object"
          },
          "author": {
            "type": "string"
          },
          "comment": {
            "type": "string"
          },
          "status": {
            "type": "string",
            "enum": [
              "DRAFT",
              "REJECTED",
              "WAIT_FOR_APPROVE",
              "APPROVED",
              "PAYMENT_IN_PROGRESS",
              "PAID",
              "WAIT_PROOFREADING_OF_PAID",
              "IN_PROOFREADING_OF_PAID",
              "PAYMENT_ERROR",
              "TO_BUILD",
              "IN_BUILD",
              "PROOFREADING_OF_PAID_DONE",
              "TEMPLATE",
              "TRASH"
            ]
          },
          "formData": {
            "type": "object"
          },
          "fixed": {
            "type": "boolean",
            "default": false
          },
          "story_comments": {
            "type": "array",
            "items": {
              "type": "string"
            }
          },
          "proofreadingFinishDate": {
            "type": "string",
            "format": "date-time"
          },
          "authorFinishDate": {
            "type": "string",
            "format": "date-time"
          },
          "editor": {
            "type": "string"
          },
          "sourceFileName": {
            "type": "string"
          },
          "sourceFileJson": {
            "type": "object"
          },
          "calculatedRatingOne": {
            "type": "number",
            "default": 0
          },
          "calculatedRatingTwo": {
            "type": "number",
            "default": 0
          },
          "templateName": {
            "type": "string"
          },
          "template": {
            "type": "string"
          },
          "available": {
            "type": "boolean",
            "default": false
          },
          "stringId": {
            "type": "string"
          },
          "created_by": {
            "type": "string"
          },
          "updated_by": {
            "type": "string"
          }
        }
      }
    }
  },
  "tags": [
    {
      "name": "Story"
    }
  ]
}